<svg viewBox="0 0 20 2460" fill="none" xmlns="http://www.w3.org/2000/svg">
<rect y="218.564" width="20" height="226.033" fill="#D6222F"/>
<path d="M0 0H20V218.564L0 226.033V0Z" fill="#61316C"/>
<path d="M0 437.128L20 444.597V519.09H0V437.128Z" fill="#A22D37"/>
<rect y="1320.49" width="20" height="169.754" fill="#008D8A"/>
<path d="M0 519.09L20 504.152V601.051H0V519.09Z" fill="#00A4A6"/>
<path d="M0 965.325H20V1335.43L0 1320.49V965.325Z" fill="#0090D6"/>
<rect y="601.051" width="20" height="200.35" fill="#009EB0"/>
<rect y="874.256" width="20" height="91.0684" fill="#009EB0"/>
<rect y="1839.17" width="20" height="214.725" fill="#96AD51"/>
<path d="M0 1490.25L20 1475.31V1630.12H0V1490.25Z" fill="#A0286F"/>
<path d="M0 1630.12H20V1855.45L0 1840.45V1630.12Z" fill="#ED1940"/>
<rect y="1949.33" width="20" height="182.049" fill="#7CA973"/>
<path d="M0 2131.38L20 2123.91V2240.61H0V2131.38Z" fill="#DD9815"/>
<rect y="2240.61" width="20" height="219.394" fill="#EBA22E"/>
<rect y="801.402" width="20" height="72.8547" fill="#00A253"/>
</svg>
