<svg width="24" height="24" viewBox="0 0 24 24" fill="none" xmlns="http://www.w3.org/2000/svg">
<path fill-rule="evenodd" clip-rule="evenodd" d="M9.49476 22.3287L6.50513 19.6713L13.324 12L6.50513 4.32874L9.49476 1.67128L18.6759 12L9.49476 22.3287Z" fill="#0E0E10"/>
</svg>
