<svg width="24" height="24" viewBox="0 0 24 24" fill="none" xmlns="http://www.w3.org/2000/svg">
<path fill-rule="evenodd" clip-rule="evenodd" d="M21.2072 8.20706L10.0001 19.4142L4.79297 14.2071L6.20718 12.7928L10.0001 16.5857L19.793 6.79285L21.2072 8.20706Z" fill="#0E0E10"/>
</svg>
