<svg width="24" height="24" viewBox="0 0 24 24" fill="none" xmlns="http://www.w3.org/2000/svg">
<path fill-rule="evenodd" clip-rule="evenodd" d="M16 5C16 5.55228 15.5523 6 15 6C14.4477 6 14 5.55228 14 5C14 4.44772 14.4477 4 15 4C15.5523 4 16 4.44772 16 5ZM17.8293 6C17.4175 7.16519 16.3062 8 15 8C13.6938 8 12.5825 7.16519 12.1707 6H2V4H12.1707C12.5825 2.83481 13.6938 2 15 2C16.3062 2 17.4175 2.83481 17.8293 4L22 4V6L17.8293 6ZM8 9C6.69378 9 5.58254 9.83481 5.17071 11H2V13H5.17071C5.58254 14.1652 6.69378 15 8 15C9.30622 15 10.4175 14.1652 10.8293 13H22V11H10.8293C10.4175 9.83481 9.30622 9 8 9ZM2 20V18H17.1707C17.5825 16.8348 18.6938 16 20 16C21.6569 16 23 17.3431 23 19C23 20.6569 21.6569 22 20 22C18.6938 22 17.5825 21.1652 17.1707 20H2ZM8 13C8.55228 13 9 12.5523 9 12C9 11.4477 8.55228 11 8 11C7.44772 11 7 11.4477 7 12C7 12.5523 7.44772 13 8 13ZM21 19C21 19.5523 20.5523 20 20 20C19.4477 20 19 19.5523 19 19C19 18.4477 19.4477 18 20 18C20.5523 18 21 18.4477 21 19Z" fill="#0E0E10"/>
</svg>
