<svg width="16" height="16" viewBox="0 0 16 16" fill="none" xmlns="http://www.w3.org/2000/svg">
<path fill-rule="evenodd" clip-rule="evenodd" d="M9 0H7V7H0V9H7V16H9V9H16V7H9V0Z" fill="#0E0E10"/>
</svg>
